<svg width="19" height="19" viewBox="0 0 19 19" fill="none" xmlns="http://www.w3.org/2000/svg">
<path d="M15.0364 8.40236L7.08556 0.463362C6.79276 0.154411 6.42713 0 5.98794 0C5.54876 0 5.18312 0.154582 4.89032 0.463362L3.96351 1.37812C3.66263 1.67896 3.51219 2.04463 3.51219 2.47553C3.51219 2.89827 3.66259 3.26831 3.96351 3.58529L9.89021 9.50002L3.96325 15.4269C3.66246 15.7278 3.51202 16.0934 3.51202 16.5244C3.51202 16.9471 3.66242 17.3172 3.96325 17.6341L4.89015 18.5487C5.19098 18.8496 5.557 19 5.98777 19C6.41871 19 6.78464 18.8496 7.08539 18.5487L15.0364 10.6097C15.3374 10.2927 15.4879 9.92272 15.4879 9.49998C15.488 9.06908 15.3374 8.70319 15.0364 8.40236Z" fill="white"/>
</svg>
