<svg width="700" height="700" viewBox="0 0 700 700" fill="none" xmlns="http://www.w3.org/2000/svg">
<path d="M350 0C157.012 0 0 157.012 0 350C0 542.988 157.012 700 350 700C542.988 700 700 542.988 700 350C700 157.012 542.986 0 350 0ZM393.75 568.75H306.25V481.25H393.75V568.75ZM437.499 368.115L393.75 411.865V437.499H306.25V393.75C306.25 382.15 310.864 371.021 319.068 362.817L375.634 306.25C387.148 294.737 393.75 278.779 393.75 262.501C393.75 238.383 374.118 218.751 350 218.751C325.882 218.751 306.25 238.383 306.25 262.501V306.25H218.751V262.501C218.751 190.125 277.625 131.25 350.001 131.25C422.378 131.25 481.252 190.124 481.252 262.501C481.25 302.405 465.719 339.917 437.499 368.115V368.115Z" fill="#0187E9"/>
</svg>
