<svg width="236" height="253" viewBox="0 0 236 253" fill="none" xmlns="http://www.w3.org/2000/svg">
<path d="M204.714 146.875C200.982 142.642 193.77 133.582 186.715 124.522C188.627 123.832 189.944 123.017 190.038 122.955L191.105 122.265L189.882 121.889C188.439 121.419 187.499 116.81 187.185 113.142C188.784 113.863 190.446 114.208 192.108 114.208C198.16 114.208 202.487 109.631 202.675 109.443L203.177 108.91L202.581 108.502C198.097 105.555 193.425 98.7838 193.895 94.1127C195.369 79.629 194.021 66.9009 189.913 56.2419C186.621 47.7147 181.541 40.4728 174.799 34.7985C165.737 27.1177 156.079 24.3276 152.379 23.4811C153.633 22.5406 154.479 21.3493 154.887 19.9072C156.141 15.5496 153.006 10.4709 152.88 10.2514L152.535 9.68715L152.002 10.0947C147.33 13.7626 141.811 14.9226 139.24 15.2674C140.902 12.9162 141.278 9.8439 140.306 6.27C139.459 3.16635 137.923 0.783749 137.86 0.689699L137.421 0L136.888 0.627C129.017 10.2514 116.6 14.1388 115.847 14.3896C95.8102 17.6814 83.0479 26.9924 77.8739 42.0404C74.895 50.7243 73.2645 55.3641 73.0763 55.897C68.4041 63.7972 63.1988 68.7505 59.6241 71.5407C55.7985 74.5189 53.0391 75.6475 53.0077 75.6789L52.0357 76.0551L52.851 76.7134C55.8612 79.1274 59.1851 79.5663 60.847 79.629C58.558 82.7326 53.6035 86.5573 53.5408 86.5887L52.7882 87.153L53.6035 87.5919C56.8647 89.3475 59.1224 89.7237 60.4394 89.7237C60.6902 89.7237 60.9097 89.7237 61.0979 89.6923C57.774 101.637 64.2022 108.063 64.4844 108.314L64.5158 108.346C68.749 111.7 71.5084 120.071 71.5398 120.165L71.5712 120.259C74.6442 126.403 81.0097 132.924 90.5109 139.633C91.6711 140.448 92.8 141.232 93.8975 141.953C89.4134 150.01 82.5148 157.816 82.5148 157.816L74.1425 160.073L76.2747 146.028C77.4349 139.57 80.8529 136.341 80.8529 136.341C79.9435 126.497 59.9063 121.074 53.5721 120.133C12.0867 114.145 9.89168 125.149 9.89168 125.149C16.947 133.676 11.9612 158.913 11.9612 158.913C0.515885 163.616 0.672671 170.074 0.672671 170.074L3.74569 178.883C1.11169 180.043 0.672671 185.623 0.672671 185.623C0.672671 192.364 2.27188 197.003 2.27188 197.003C-3.30969 204.935 3.14989 217.914 3.14989 217.914C39.8377 228.416 80.6961 252.869 80.6961 252.869C101.329 230.861 235.255 212.051 235.255 212.051C231.148 181.516 204.714 146.875 204.714 146.875Z" fill="#2E1222"/>
<path d="M198.097 151.577C198.097 151.577 177.872 179.51 176.524 200.922C176.524 200.922 173.89 176.25 195.024 147.627C195.024 147.627 185.335 135.651 176.68 124.334C175.112 126.246 170.754 131.106 162.977 136.028C154.981 141.044 141.937 146.937 123.405 148.223C118.074 152.831 113.151 156.437 109.325 158.067L102.332 160.857C102.332 160.857 105.311 187.567 98.2247 202.333C99.9494 183.178 95.8729 157.753 95.8729 157.753C95.8729 157.753 105.562 155.12 107.757 150.699C107.757 150.699 106.158 150.01 104.277 147.909C104.245 147.909 104.183 147.909 104.151 147.909H104.026L103.932 147.847C103.9 147.815 101.549 146.624 98.1307 144.555C94.4619 150.449 87.1243 161.891 83.5496 164.807L71.6652 183.303C71.6652 183.303 73.6094 189.135 71.5398 192.959C70.8186 194.276 68.2473 198.038 68.2473 198.038C68.2473 198.038 71.1008 211.048 65.8014 217.663C65.8014 217.663 57.1469 222.93 10.7383 215.092C10.7383 215.092 56.5511 226.034 79.1596 244.53C79.1596 244.53 139.522 217.224 227.197 207.098C227.197 207.067 217.037 166.97 198.097 151.577Z" fill="#0187E9"/>
<path d="M7.35181 170.074L9.1078 178.287C9.1078 178.287 21.1489 172.707 26.7305 172.111C26.7305 172.111 55.5163 177.974 63.1361 176.532C63.1361 176.532 71.2263 173.773 66.3032 163.177C66.3032 163.177 46.3914 156.562 28.2043 156.562C28.2043 156.562 10.8638 161.264 7.35181 170.074Z" fill="#0187E9"/>
<path d="M7.35178 184.024C7.35178 184.024 3.83978 189.887 7.35178 193.712L39.6496 193.273L61.9759 196.22C61.9759 196.22 68.0592 191.454 67.2752 186.815C67.0244 185.278 65.2057 180.952 65.2057 180.952C65.2057 180.952 43.4752 180.357 27.0127 176.532C27.0127 176.532 10.5816 180.419 7.35178 184.024Z" fill="#0187E9"/>
<path d="M7.35171 197.223C7.35171 197.223 4.43549 205.875 6.41099 208.948C6.41099 208.948 22.8735 217.914 63.1988 213.274C63.1988 213.274 65.3624 204.715 63.1674 199.856C63.1361 199.856 19.6751 193.712 7.35171 197.223Z" fill="#0187E9"/>
<path d="M18.1385 128.441C18.1385 128.441 20.114 140.542 18.1385 154.43L27.1694 151.577C27.1694 151.577 59.6868 153.584 68.7176 158.223C68.7176 158.223 69.8778 141.138 74.9577 137.25C74.9577 137.25 41.4683 141.232 18.1385 128.441Z" fill="#FFE2BB"/>
<path d="M68.8117 158.349L68.7176 158.286C59.8749 153.772 28.0474 151.703 27.2007 151.64L18.0758 154.524L18.1072 154.399C20.0513 140.699 18.1385 128.566 18.1072 128.441L18.0758 128.284L18.2326 128.378C24.8803 132.015 36.7333 136.561 55.3595 137.564C66.5226 138.159 74.9263 137.188 75.0204 137.156L75.3026 137.125L75.0831 137.313C70.066 141.138 68.8744 158.035 68.8744 158.223L68.8117 158.349ZM27.1694 151.483C27.5143 151.515 59.5613 153.552 68.6549 158.067C68.7803 156.562 70.0346 141.326 74.7068 137.344C73.1703 137.501 65.3624 138.253 55.2967 137.721C45.0429 137.188 30.2737 135.15 18.2326 128.598C18.4521 130.071 20.0513 141.483 18.2326 154.305L27.1694 151.483Z" fill="#FFF492"/>
<path d="M77.529 167.409C77.529 167.409 87.9709 186.125 79.5986 204.872C79.5986 204.872 80.0376 185.09 74.9578 173.773L77.529 167.409Z" fill="#2E1222"/>
<path d="M74.6754 165.214L72.5431 176.532L79.7239 164.525L74.6754 165.214Z" fill="#0187E9"/>
<path d="M61.6622 84.9272C65.8954 82.2938 68.9057 74.613 68.9057 74.613L64.0767 74.6444C77.4662 70.3808 83.236 45.4262 83.236 45.4262C92.4236 26.2086 114.499 20.4402 114.499 20.4402C123.499 19.3116 135.791 9.59311 135.791 9.59311C133.909 17.3679 128.986 19.9073 128.986 19.9073C137.327 20.8164 148.051 17.4306 148.051 17.4306C146.295 22.0077 139.961 24.6411 139.961 24.6411C144.1 25.9578 161.629 30.0647 172.196 41.915C190.791 62.1357 188.282 94.6143 188.282 94.6143C188.972 103.204 194.021 108.753 194.021 108.753C191.638 109.255 189.38 109.192 187.53 108.941C184.864 108.565 180.788 107.342 178.813 103.674C178.813 103.674 179.596 109.349 182.607 111.042C182.513 115.87 183.673 118.66 183.673 118.66C181.697 119.161 180.067 119.13 178.813 118.848C178.813 118.848 175.52 118.158 173.356 114.49C173.356 114.49 173.137 116.747 173.764 118.911C146.013 145.652 105.374 140.824 105.374 140.824C86.748 131.106 76.9645 117.249 76.9645 117.249C75.6162 112.139 69.5642 105.273 69.5642 105.273C63.4182 98.2196 66.8989 82.764 66.8989 82.764C64.892 84.5196 61.6622 84.9272 61.6622 84.9272Z" fill="#0187E9"/>
<path d="M105.374 140.856C95.7475 135.84 88.5039 129.695 84.1453 125.431C79.4104 120.792 76.9332 117.312 76.9018 117.28V117.249C75.5534 112.202 69.5642 105.367 69.5015 105.305C66.3344 101.668 65.77 95.7115 65.8641 91.3852C65.9582 87.2157 66.648 83.6731 66.8048 82.8894C64.8293 84.5823 61.6936 84.9585 61.6622 84.9898L61.4427 85.0212L61.6309 84.8958C65.5819 82.4505 68.4981 75.4281 68.8117 74.6757L63.7318 74.707L64.0454 74.613C67.087 73.6411 70.0032 71.5093 72.6686 68.2489C74.8009 65.6469 76.8077 62.3551 78.6264 58.405C81.6994 51.7275 83.1732 45.4575 83.1732 45.3948C85.2742 41.0058 88.2217 36.9616 91.9532 33.3877C94.9322 30.5035 98.4128 27.9328 102.27 25.707C108.855 21.9136 114.405 20.4402 114.468 20.4088C123.342 19.3116 135.602 9.65579 135.728 9.56174L135.853 9.46769L135.822 9.62444C134.129 16.5841 129.958 19.4056 129.143 19.9072C130.021 20.0013 130.993 20.0326 131.996 20.0326C139.585 20.0326 147.926 17.4306 148.02 17.3992L148.114 17.3679L148.083 17.4619C146.483 21.6628 140.996 24.2649 140.086 24.6724C140.494 24.7978 140.996 24.9546 141.56 25.1113C147.33 26.7729 162.695 31.2246 172.228 41.9149C176.461 46.5234 179.973 52.1977 182.607 58.6872C184.708 63.8913 186.276 69.691 187.279 75.867C188.972 86.4006 188.345 94.5516 188.345 94.6143C189.035 103.079 194.021 108.659 194.083 108.722L194.146 108.784L194.052 108.816C192.014 109.255 189.788 109.317 187.53 109.004C182.45 108.252 180.035 105.9 178.907 103.988C179.126 105.148 180.067 109.6 182.638 111.042H182.669V111.073C182.575 115.807 183.704 118.628 183.736 118.66L183.767 118.722H183.704C181.98 119.161 180.318 119.224 178.813 118.911C178.781 118.911 175.551 118.19 173.419 114.678C173.388 115.243 173.325 117.124 173.858 118.911V118.942L173.827 118.973C164.921 127.563 153.727 133.802 140.62 137.501C129.582 140.605 119.485 141.263 112.931 141.263C108.259 141.2 105.374 140.856 105.374 140.856ZM173.294 114.459V114.302L173.388 114.427C175.52 118.001 178.781 118.754 178.813 118.754C180.286 119.067 181.917 119.005 183.579 118.597C183.422 118.19 182.45 115.462 182.544 111.042C179.565 109.349 178.75 103.706 178.75 103.643L178.718 103.361L178.844 103.612C179.879 105.587 182.23 108.063 187.53 108.847C188.471 108.973 189.38 109.035 190.289 109.035C191.544 109.035 192.766 108.91 193.927 108.659C193.362 108.001 188.878 102.546 188.22 94.5516C188.22 94.4576 188.815 86.3379 187.154 75.8043C186.181 69.6283 184.614 63.8599 182.481 58.6558C179.847 52.135 176.367 46.5234 172.133 41.9149C162.601 31.2559 147.299 26.8042 141.498 25.1427C140.87 24.9546 140.306 24.7978 139.898 24.6724L139.773 24.6411L139.898 24.5784C139.961 24.547 146.17 21.9136 147.926 17.4933C146.954 17.7754 139.146 20.0953 131.965 20.0953C130.899 20.0953 129.864 20.0326 128.923 19.9386L128.767 19.9072L128.923 19.8445C128.986 19.8132 133.784 17.2425 135.665 9.68714C134.379 10.6903 122.934 19.4056 114.468 20.4402C114.405 20.4402 108.886 21.9136 102.27 25.7383C98.4128 27.9642 94.9322 30.5662 91.9532 33.4191C88.2531 36.993 85.3055 41.0371 83.2046 45.3948C83.2046 45.4575 81.7308 51.7275 78.6578 58.405C76.8391 62.3551 74.8322 65.6469 72.6999 68.2803C70.0973 71.4466 67.2752 73.5471 64.3276 74.5503L68.843 74.5189H68.9057L68.8744 74.5816C68.843 74.6443 65.9268 82.0743 61.819 84.8017C62.6029 84.6763 65.1429 84.1434 66.7735 82.6699L66.8989 82.5759L66.8675 82.7326C66.8675 82.764 65.9895 86.6514 65.8954 91.3539C65.8014 95.6802 66.3658 101.605 69.5329 105.211C69.5956 105.273 75.5848 112.139 76.9645 117.186C77.09 117.374 79.5672 120.792 84.1767 125.306C88.5353 129.57 95.7475 135.714 105.343 140.699C105.531 140.73 108.353 141.044 112.868 141.044C119.391 141.044 129.519 140.385 140.525 137.282C153.601 133.582 164.765 127.375 173.67 118.816C173.074 116.747 173.294 114.49 173.294 114.459Z" fill="#0187E9"/>
<path d="M97.7857 83.1402C106.942 83.7672 116.788 101.887 116.788 101.887C127.544 115.493 141.153 107.342 141.153 107.342C134.129 117.406 127.638 122.265 121.993 124.146C118.074 128.66 109.764 136.717 101.486 134.209C101.486 134.209 91.6397 130.04 88.9743 118.472C84.9292 123.206 84.3962 132.046 84.3962 132.046C78.2502 118.942 81.8876 97.5612 81.8876 97.5612C86.2149 76.3059 97.7857 83.1402 97.7857 83.1402Z" fill="#2E1222"/>
<path d="M131.275 113.55C131.275 113.55 118.45 117.406 111.677 101.982C111.677 101.982 96.4373 75.961 87.3438 92.89C84.0199 99.066 83.4555 109.412 83.9258 120.729C83.9258 120.729 89.6015 106.371 100.2 117.657C100.2 117.625 111.74 132.328 131.275 113.55Z" fill="#FEBB16"/>
<path d="M114.468 125.463C114.468 125.463 106.315 133.3 100.765 130.259C100.765 130.259 92.6431 126.623 91.9532 116.653C91.9532 116.653 95.2144 116.403 100.263 122.673C100.263 122.673 105.28 128.943 114.468 125.463Z" fill="#FEBB16"/>
<path d="M121.241 85.1779C121.053 74.08 135.226 64.6437 135.226 64.6437C150.215 52.668 151.25 75.3654 151.25 75.3654C143.159 61.4773 139.146 69.8478 139.146 69.8478C139.146 69.8478 141.623 71.3839 142.376 72.0109C151.218 79.2528 144.602 90.3821 140.149 93.423C137.421 95.2727 135.069 96.4013 133.062 96.9342C139.616 98.972 145.668 93.9246 145.668 93.9246C136.104 105.148 128.328 99.0974 125.035 95.3354C121.492 91.8555 121.241 85.1779 121.241 85.1779Z" fill="#2E1222"/>
<path d="M76.3061 68.5938C77.3095 62.7313 82.7657 64.2675 82.7657 64.2675C82.264 57.7467 75.7103 61.0384 75.7103 61.0384C78.6893 56.3046 82.1385 57.2764 82.1385 57.2764C89.6329 60.0666 88.2845 79.9425 88.2845 79.9425C88.2845 79.9425 83.8632 93.7365 76.7451 84.1121C76.7451 84.1121 79.6613 86.526 81.9504 85.0839C81.919 85.0526 81.919 85.0526 81.919 85.0526C73.3899 77.8421 76.3061 68.5938 76.3061 68.5938Z" fill="#2E1222"/>
<path d="M136.888 87.7173C138.299 83.2969 137.139 78.9706 134.286 78.0615C131.432 77.1523 127.983 80.0052 126.572 84.4255C125.944 86.4319 125.819 88.3756 126.164 90.0372C125.443 88.3443 125.161 85.5855 126.446 81.1965C126.446 81.1965 129.488 69.8478 136.324 71.7601C140.149 72.826 145.668 78.5944 141.811 86.6827C141.811 86.6827 138.707 93.0468 132.874 93.3916C134.568 92.3257 136.073 90.288 136.888 87.7173Z" fill="white"/>
<path d="M82.7969 71.2585C80.8842 71.4153 79.5358 74.1114 79.7867 77.3091C79.8807 78.5317 80.1943 79.629 80.6333 80.5381C78.5324 78.0615 77.5603 73.3276 78.7205 68.0608C78.7205 68.0608 81.2291 65.6782 84.1767 67.81L84.6784 72.0109C84.1139 71.478 83.4868 71.2272 82.7969 71.2585Z" fill="white"/>
<path d="M102.583 103.204C102.583 103.204 98.2874 97.7492 93.3958 108.377C93.3958 108.377 105.562 107.531 102.583 103.204Z" fill="#2E1222"/>
<path d="M159.81 87.6859C159.81 87.6859 170.315 96.558 166.301 107.217L162.915 105.399C162.915 105.399 163.134 112.546 157.992 117.719L156.831 115.149C156.831 115.149 153.727 121.701 144.383 122.265C144.383 122.265 152.347 119.036 156.173 107.938C156.173 107.938 158.525 110.258 158.556 111.606C158.556 111.606 160.908 103.298 159.34 97.2163C159.34 97.2163 162.225 97.7179 162.915 100.038C162.946 100.038 163.793 94.677 159.81 87.6859Z" fill="#2E1222"/>
<path d="M129.582 130.259C128.39 131.889 127.512 133.394 126.415 134.899C125.317 136.404 124.032 137.94 121.931 139.445C121.743 139.57 121.554 139.727 121.304 139.884C121.053 140.04 120.771 140.26 120.394 140.448C120.018 140.667 119.61 140.918 119.109 141.169C118.607 141.42 118.011 141.702 117.321 141.984C117.07 142.078 116.475 142.266 116.475 142.266C116.475 142.266 116.286 142.36 116.036 142.423C115.91 142.454 115.753 142.517 115.628 142.548C113.966 143.05 112.367 143.238 111.05 143.269C110.705 143.269 110.391 143.301 110.109 143.269C109.796 143.269 109.545 143.238 109.263 143.238C108.729 143.175 108.29 143.144 107.946 143.081C105.343 142.642 103.493 141.671 101.925 140.636C100.357 139.57 99.0715 138.41 97.5037 137.156C97.9113 137.47 98.3189 137.721 98.7266 137.971C99.1342 138.191 99.5418 138.41 99.9495 138.598C100.796 138.943 101.611 139.225 102.458 139.445C104.183 139.884 105.97 140.166 108.228 140.291C109.451 140.354 111.865 140.323 114.719 139.507C114.813 139.476 114.938 139.445 115.064 139.413C115.252 139.351 115.44 139.319 115.44 139.319C115.44 139.319 115.942 139.131 116.161 139.069C116.757 138.849 117.29 138.63 117.729 138.442C118.199 138.253 118.576 138.065 118.889 137.909C119.234 137.752 119.485 137.595 119.736 137.47C119.987 137.344 120.175 137.25 120.331 137.125C122.338 135.996 123.938 135.024 125.411 133.99C126.979 132.955 128.359 131.889 129.582 130.259Z" fill="#2E1222"/>
<path d="M19.7692 126.309C19.7692 126.309 32.1866 118.785 57.68 126.309C57.68 126.309 71.5084 129.475 74.9891 134.648C74.9891 134.648 52.506 123.174 24.3786 128.441L19.7692 126.309Z" fill="#FFE2BB"/>
<path d="M75.2086 134.899L74.9264 134.774C74.8637 134.742 69.2194 131.889 60.1885 129.695C51.8475 127.689 38.897 125.839 24.3787 128.566H24.3473H24.316L19.5811 126.372L19.7065 126.309C19.7378 126.278 22.9049 124.397 29.1136 123.488C34.8519 122.641 44.4786 122.422 57.6486 126.309C57.6799 126.309 61.1606 127.124 65.0175 128.535C71.4771 130.918 74.017 133.206 75.0204 134.68L75.2086 134.899ZM39.3047 126.999C47.6456 126.999 54.8892 128.221 60.2199 129.507C68.1219 131.419 73.4526 133.864 74.7069 134.46C72.8254 131.921 68.4041 129.883 64.9861 128.629C61.1292 127.218 57.6799 126.403 57.6486 126.403C44.5099 122.516 34.9147 122.735 29.1763 123.582C23.6888 124.397 20.5845 125.964 19.926 126.309L24.3473 128.378C29.584 127.406 34.6324 126.999 39.3047 126.999Z" fill="#FFF492"/>
<path d="M28.1416 158.819C28.1416 158.819 26.1347 164.995 28.1416 169.572C28.1416 169.603 21.964 165.434 28.1416 158.819Z" fill="#2E1222"/>
<path d="M25.4135 180.764C25.4135 180.764 23.4066 186.94 25.4135 191.517C25.4135 191.517 19.236 187.379 25.4135 180.764Z" fill="#2E1222"/>
<path d="M25.4135 199.982C25.4135 199.982 23.4066 206.158 25.4135 210.735C25.4135 210.766 19.236 206.596 25.4135 199.982Z" fill="#2E1222"/>
<path d="M124.973 162.456C128.077 163.271 130.648 164.18 133.502 164.87C136.355 165.559 139.459 166.155 143.442 166.092C143.787 166.092 144.163 166.092 144.633 166.061C145.104 166.061 145.637 165.998 146.295 165.967C146.954 165.936 147.675 165.842 148.553 165.747C149.431 165.653 150.403 165.497 151.532 165.309C152.096 165.215 152.849 165.026 153.696 164.87C154.511 164.682 155.389 164.431 156.204 164.211C156.988 163.961 157.709 163.741 158.242 163.553C158.775 163.365 159.089 163.239 159.089 163.239C159.089 163.239 159.371 163.145 159.81 162.989C160.249 162.832 160.876 162.612 161.535 162.299C161.88 162.142 162.225 162.017 162.601 161.86C162.946 161.703 163.322 161.515 163.667 161.358C164.012 161.202 164.388 161.014 164.702 160.857C165.015 160.669 165.329 160.512 165.611 160.355C166.301 160.01 166.928 159.634 167.524 159.289C168.12 158.945 168.684 158.6 169.217 158.255C169.75 157.91 170.221 157.596 170.691 157.283C171.13 156.969 171.569 156.656 171.945 156.374C172.729 155.81 173.388 155.245 173.952 154.806C174.517 154.336 174.956 153.929 175.332 153.615C178.28 150.95 180.192 148.411 181.791 145.966C183.391 143.52 184.676 141.106 186.401 138.379C184.645 141.075 182.607 142.925 180.443 144.774C178.248 146.593 175.865 148.348 172.792 150.449C172.416 150.699 171.945 151.044 171.381 151.389C170.817 151.734 170.158 152.204 169.374 152.675C168.998 152.925 168.59 153.145 168.151 153.427C167.712 153.678 167.242 153.96 166.74 154.242C166.238 154.524 165.705 154.806 165.141 155.088C164.576 155.402 163.981 155.684 163.354 155.998C162.821 156.248 162.193 156.562 161.535 156.844C160.876 157.158 160.186 157.44 159.559 157.691C158.932 157.941 158.399 158.192 157.991 158.318C157.584 158.474 157.333 158.568 157.333 158.568C157.333 158.568 157.051 158.662 156.549 158.85C156.079 159.007 155.42 159.227 154.699 159.477C153.978 159.697 153.163 159.916 152.441 160.136C151.689 160.324 150.999 160.512 150.497 160.669C149.462 160.888 148.584 161.139 147.769 161.264C146.985 161.421 146.295 161.578 145.7 161.672C145.104 161.766 144.602 161.86 144.194 161.923C143.755 161.985 143.41 162.048 143.097 162.08C139.428 162.612 136.481 162.926 133.627 163.083C130.836 163.239 128.077 163.239 124.973 162.456Z" fill="#2E1222"/>
</svg>
